{
  "applications": "*",
  "changelogDate": "20220510194144",
  "dto": "no",
  "embedded": false,
  "entityTableName": "image",
  "fields": [
    {
      "fieldName": "code",
      "fieldType": "String",
      "fieldValidateRules": ["unique"]
    },
    {
      "fieldName": "photo",
      "fieldType": "byte[]",
      "fieldTypeBlobContent": "image"
    }
  ],
  "fluentMethods": true,
  "jpaMetamodelFiltering": false,
  "name": "Image",
  "pagination": "no",
  "readOnly": false,
  "relationships": [
    {
      "otherEntityName": "stade",
      "otherEntityRelationshipName": "image",
      "relationshipName": "stade",
      "relationshipType": "many-to-one"
    }
  ],
  "service": "no"
}
