{
  "applications": "*",
  "changelogDate": "20220510194138",
  "dto": "no",
  "embedded": false,
  "entityTableName": "patient",
  "fields": [
    {
      "fieldName": "code",
      "fieldType": "String",
      "fieldValidateRules": ["unique"]
    },
    {
      "fieldName": "nom",
      "fieldType": "String"
    },
    {
      "fieldName": "prenom",
      "fieldType": "String"
    },
    {
      "fieldName": "dateNaissance",
      "fieldType": "LocalDate"
    },
    {
      "fieldName": "adresse",
      "fieldType": "String"
    },
    {
      "fieldName": "genre",
      "fieldType": "Genre",
      "fieldValues": "Homme,Femme"
    },
    {
      "fieldName": "telephone",
      "fieldType": "String"
    },
    {
      "fieldName": "poids",
      "fieldType": "Double"
    },
    {
      "fieldName": "taille",
      "fieldType": "Double"
    },
    {
      "fieldName": "photo",
      "fieldType": "byte[]",
      "fieldTypeBlobContent": "image"
    }
  ],
  "fluentMethods": true,
  "jpaMetamodelFiltering": false,
  "name": "Patient",
  "pagination": "no",
  "readOnly": false,
  "relationships": [
    {
      "otherEntityName": "user",
      "otherEntityRelationshipName": "patient",
      "ownerSide": true,
      "relationshipName": "user",
      "relationshipType": "one-to-one"
    },
    {
      "otherEntityName": "secretaire",
      "otherEntityRelationshipName": "patient",
      "relationshipName": "secretaire",
      "relationshipType": "many-to-one"
    },
    {
      "otherEntityName": "stade",
      "otherEntityRelationshipName": "patient",
      "relationshipName": "stade",
      "relationshipType": "many-to-one"
    },
    {
      "otherEntityName": "detection",
      "otherEntityRelationshipName": "patient",
      "relationshipName": "detection",
      "relationshipType": "one-to-many"
    },
    {
      "otherEntityName": "rendezVous",
      "otherEntityRelationshipName": "patient",
      "relationshipName": "rendezVous",
      "relationshipType": "one-to-many"
    }
  ],
  "service": "no"
}
